"x","importance"
"(Intercept)","342.732798203774"
"country_id","-5.16289086564307e-05"
"inv_amount","0.0321717697019452"
"disputed","2.26525557952713"
"bill_type","1.56712928179142"
"ebill_dt_yyyy","-0.535835456870521"
"ebill_dt_mm","-0.044092221023613"
"inv_dt_yyyy","0.363692283846522"
"inv_dt_mm","-0.00262712873840184"
"inv_amount_cat","-0.41035661639844"
"bill2inv_days_cat","-0.104983862954155"
"q1","0.00891458159739899"
"q2","-0.000394212923529722"
"q3","-0.00178062677391231"
"q4","0.355669129054696"
