"x","importance"
"(Intercept)","342.73"
"country_id","0"
"inv_amount","0.03"
"disputed","2.27"
"bill_type","1.57"
"ebill_dt_yyyy","-0.54"
"ebill_dt_mm","-0.04"
"inv_dt_yyyy","0.36"
"inv_dt_mm","0"
"inv_amount_cat","-0.41"
"bill2inv_days_cat","-0.1"
"q1","0.01"
"q2","0"
"q3","0"
"q4","0.36"
